EESchema Schematic File Version 4
EELAYER 30 0
EELAYER END
$Descr A4 11693 8268
encoding utf-8
Sheet 1 1
Title "Interface MIPI PCAM-5C -> MIMAS-A7"
Date "2021-06-28"
Rev "b83e7c6"
Comp "Yann Roberge"
Comment1 ""
Comment2 ""
Comment3 ""
Comment4 ""
$EndDescr
$Comp
L Connector_Generic:Conn_02x19_Odd_Even J2
U 1 1 60DA132D
P 8400 3650
F 0 "J2" H 8450 4767 50  0000 C CNN
F 1 "Conn_02x19_Row_Letter_First" H 8450 4676 50  0000 C CNN
F 2 "Connector_PinHeader_2.54mm:PinHeader_2x19_P2.54mm_Vertical" H 8400 3650 50  0001 C CNN
F 3 "~" H 8400 3650 50  0001 C CNN
	1    8400 3650
	1    0    0    -1  
$EndComp
$Comp
L Device:R_US R1
U 1 1 60DB9943
P 4800 1600
F 0 "R1" V 4595 1600 50  0000 C CNN
F 1 "100" V 4686 1600 50  0000 C CNN
F 2 "Resistor_SMD:R_0603_1608Metric_Pad0.98x0.95mm_HandSolder" V 4840 1590 50  0001 C CNN
F 3 "~" H 4800 1600 50  0001 C CNN
	1    4800 1600
	0    1    1    0   
$EndComp
$Comp
L Device:C_Small C1
U 1 1 60DE31BB
P 7550 1600
F 0 "C1" H 7642 1646 50  0000 L CNN
F 1 "0.1μF" H 7642 1555 50  0000 L CNN
F 2 "Capacitor_SMD:C_0805_2012Metric_Pad1.18x1.45mm_HandSolder" H 7550 1600 50  0001 C CNN
F 3 "~" H 7550 1600 50  0001 C CNN
	1    7550 1600
	1    0    0    -1  
$EndComp
$Comp
L Device:R_US R8
U 1 1 60DF5F3D
P 6400 5600
F 0 "R8" H 6468 5646 50  0000 L CNN
F 1 "1.5k" H 6468 5555 50  0000 L CNN
F 2 "Resistor_SMD:R_0805_2012Metric_Pad1.20x1.40mm_HandSolder" V 6440 5590 50  0001 C CNN
F 3 "~" H 6400 5600 50  0001 C CNN
	1    6400 5600
	1    0    0    -1  
$EndComp
$Comp
L Device:R_US R9
U 1 1 60DF6A45
P 6750 5600
F 0 "R9" H 6818 5646 50  0000 L CNN
F 1 "1.5k" H 6818 5555 50  0000 L CNN
F 2 "Resistor_SMD:R_0805_2012Metric_Pad1.20x1.40mm_HandSolder" V 6790 5590 50  0001 C CNN
F 3 "~" H 6750 5600 50  0001 C CNN
	1    6750 5600
	1    0    0    -1  
$EndComp
$Comp
L power:GND #PWR0101
U 1 1 60DF84B7
P 7550 1800
F 0 "#PWR0101" H 7550 1550 50  0001 C CNN
F 1 "GND" H 7555 1627 50  0000 C CNN
F 2 "" H 7550 1800 50  0001 C CNN
F 3 "" H 7550 1800 50  0001 C CNN
	1    7550 1800
	1    0    0    -1  
$EndComp
$Comp
L Device:R_US R3
U 1 1 60DF8D6D
P 4800 2650
F 0 "R3" V 4595 2650 50  0000 C CNN
F 1 "100" V 4686 2650 50  0000 C CNN
F 2 "Resistor_SMD:R_0603_1608Metric_Pad0.98x0.95mm_HandSolder" V 4840 2640 50  0001 C CNN
F 3 "~" H 4800 2650 50  0001 C CNN
	1    4800 2650
	0    1    1    0   
$EndComp
$Comp
L Device:R_US R5
U 1 1 60DFCC99
P 4300 4000
F 0 "R5" H 4232 3954 50  0000 R CNN
F 1 "150" H 4232 4045 50  0000 R CNN
F 2 "Resistor_SMD:R_0805_2012Metric_Pad1.20x1.40mm_HandSolder" V 4340 3990 50  0001 C CNN
F 3 "~" H 4300 4000 50  0001 C CNN
	1    4300 4000
	-1   0    0    1   
$EndComp
$Comp
L Device:R_US R10
U 1 1 60DFD7A9
P 4300 5850
F 0 "R10" H 4232 5804 50  0000 R CNN
F 1 "150" H 4232 5895 50  0000 R CNN
F 2 "Resistor_SMD:R_0805_2012Metric_Pad1.20x1.40mm_HandSolder" V 4340 5840 50  0001 C CNN
F 3 "~" H 4300 5850 50  0001 C CNN
	1    4300 5850
	-1   0    0    1   
$EndComp
$Comp
L Device:R_US R4
U 1 1 60DFDD0E
P 4800 3450
F 0 "R4" V 4595 3450 50  0000 C CNN
F 1 "100" V 4686 3450 50  0000 C CNN
F 2 "Resistor_SMD:R_0603_1608Metric_Pad0.98x0.95mm_HandSolder" V 4840 3440 50  0001 C CNN
F 3 "~" H 4800 3450 50  0001 C CNN
	1    4800 3450
	0    1    1    0   
$EndComp
$Comp
L Device:R_US R6
U 1 1 60DFE2FD
P 4800 4600
F 0 "R6" V 4595 4600 50  0000 C CNN
F 1 "100" V 4686 4600 50  0000 C CNN
F 2 "Resistor_SMD:R_0603_1608Metric_Pad0.98x0.95mm_HandSolder" V 4840 4590 50  0001 C CNN
F 3 "~" H 4800 4600 50  0001 C CNN
	1    4800 4600
	0    1    1    0   
$EndComp
$Comp
L Device:R_US R7
U 1 1 60DFEC4B
P 4800 5400
F 0 "R7" V 4595 5400 50  0000 C CNN
F 1 "100" V 4686 5400 50  0000 C CNN
F 2 "Resistor_SMD:R_0603_1608Metric_Pad0.98x0.95mm_HandSolder" V 4840 5390 50  0001 C CNN
F 3 "~" H 4800 5400 50  0001 C CNN
	1    4800 5400
	0    1    1    0   
$EndComp
$Comp
L Device:R_US R11
U 1 1 60DFF42E
P 4800 6450
F 0 "R11" V 4595 6450 50  0000 C CNN
F 1 "100" V 4686 6450 50  0000 C CNN
F 2 "Resistor_SMD:R_0603_1608Metric_Pad0.98x0.95mm_HandSolder" V 4840 6440 50  0001 C CNN
F 3 "~" H 4800 6450 50  0001 C CNN
	1    4800 6450
	0    1    1    0   
$EndComp
Text Notes 7950 5300 0    50   ~ 0
Souder à la carte MIMAS A7:\n     - a1 => A4\n     - b1 => B4\n jusqu'à\n     - a19 => a22\n     - b19 => b22
Wire Wire Line
	3150 3050 2800 3050
Text Label 3000 3050 0    50   ~ 0
GND
Text Label 3000 3350 0    50   ~ 0
GND
Text Label 3000 3650 0    50   ~ 0
GND
Text Label 3000 3950 0    50   ~ 0
GND
Text Notes 2300 4850 0    50   ~ 0
Connecteur caméra
Wire Wire Line
	4650 1600 4300 1600
Wire Wire Line
	4050 3250 4050 2650
Wire Wire Line
	4050 2650 4300 2650
Connection ~ 4300 2650
Wire Wire Line
	4300 2650 4650 2650
Wire Wire Line
	2800 3150 3850 3150
Wire Wire Line
	2800 3250 4050 3250
Text Label 3000 3150 0    50   ~ 0
MIPI_LANE0_N
Text Label 3000 3250 0    50   ~ 0
MIPI_LANE0_P
Text Label 3000 3450 0    50   ~ 0
MIPI_LANE1_N
Text Label 3000 3550 0    50   ~ 0
MIPI_LANE1_P
Text Label 3000 3750 0    50   ~ 0
MIPI_CLK_N
Text Label 3000 3850 0    50   ~ 0
MIPI_CLK_P
$Comp
L Connector_Generic:Conn_01x17 J1
U 1 1 60D21A5C
P 2600 3850
F 0 "J1" H 2600 4900 60  0000 C CNN
F 1 "XF3M1-1515-1B" H 2550 4800 60  0000 C CNN
F 2 "bibliotheques:XF3M1-1515-1B_perso" H 3000 3090 60  0001 C CNN
F 3 "" H 2600 3850 60  0000 C CNN
	1    2600 3850
	-1   0    0    -1  
$EndComp
Text Label 3000 4050 0    50   ~ 0
CAM_PWUP
Text Label 3000 4150 0    50   ~ 0
CLK_12MHz
Text Label 3000 4250 0    50   ~ 0
CAM_SCL
Text Label 3000 4350 0    50   ~ 0
CAM_SDA
Text Label 3000 4450 0    50   ~ 0
VCC3V3
$Comp
L power:+3V3 #PWR0102
U 1 1 60E4FC1E
P 7550 1400
F 0 "#PWR0102" H 7550 1250 50  0001 C CNN
F 1 "+3V3" H 7565 1573 50  0000 C CNN
F 2 "" H 7550 1400 50  0001 C CNN
F 3 "" H 7550 1400 50  0001 C CNN
	1    7550 1400
	1    0    0    -1  
$EndComp
Wire Wire Line
	6400 5450 6400 5300
Wire Wire Line
	6750 5300 6750 5450
Wire Wire Line
	6400 5300 6600 5300
$Comp
L power:+3V3 #PWR0103
U 1 1 60E58F83
P 6600 5300
F 0 "#PWR0103" H 6600 5150 50  0001 C CNN
F 1 "+3V3" H 6615 5473 50  0000 C CNN
F 2 "" H 6600 5300 50  0001 C CNN
F 3 "" H 6600 5300 50  0001 C CNN
	1    6600 5300
	1    0    0    -1  
$EndComp
Connection ~ 6600 5300
Wire Wire Line
	6600 5300 6750 5300
$Comp
L Device:R_US R2
U 1 1 60DA4CAC
P 4300 2100
F 0 "R2" H 4232 2054 50  0000 R CNN
F 1 "150" H 4232 2145 50  0000 R CNN
F 2 "Resistor_SMD:R_0805_2012Metric_Pad1.20x1.40mm_HandSolder" V 4340 2090 50  0001 C CNN
F 3 "~" H 4300 2100 50  0001 C CNN
	1    4300 2100
	-1   0    0    1   
$EndComp
Connection ~ 4300 1600
Wire Wire Line
	3850 1600 3850 3150
Wire Wire Line
	4300 1600 3850 1600
Wire Wire Line
	9550 2850 8700 2850
Text Label 7850 3150 0    50   ~ 0
GND
Text Label 7850 3750 0    50   ~ 0
GND
Text Label 7850 4350 0    50   ~ 0
GND
Text Label 7850 3250 0    50   ~ 0
VCC3V3
Text Label 7850 3850 0    50   ~ 0
VCC3V3
Text Label 7850 4450 0    50   ~ 0
VCC3V3
Text Label 8800 3850 0    50   ~ 0
VCC3V3
Text Label 8800 4450 0    50   ~ 0
VCC3V3
Text Label 8800 3250 0    50   ~ 0
VCC3V3
Text Label 8800 4350 0    50   ~ 0
GND
Text Label 8800 3750 0    50   ~ 0
GND
Text Label 8800 3150 0    50   ~ 0
GND
Text Label 7400 2750 0    50   ~ 0
MIPI_LANE0_N_HSUL
Text Label 7400 2950 0    50   ~ 0
MIPI_LANE0_P_HSUL
Text Label 7400 2850 0    50   ~ 0
MIPI_LANE0_LVDS_N
Text Label 8800 2850 0    50   ~ 0
MIPI_LANE0_LVDS_P
Wire Wire Line
	2800 3450 4300 3450
Wire Wire Line
	4650 3450 4300 3450
Connection ~ 4300 3450
Wire Wire Line
	4300 4600 4650 4600
Wire Wire Line
	7400 3350 8200 3350
Wire Wire Line
	7400 3450 8200 3450
Wire Wire Line
	9550 3350 8700 3350
Text Label 8800 3350 0    50   ~ 0
MIPI_LANE1_LVDS_P
Text Label 7400 3350 0    50   ~ 0
MIPI_LANE1_LVDS_N
Text Label 7400 3450 0    50   ~ 0
MIPI_LANE1_P_HSUL
Wire Wire Line
	4300 4600 3950 4600
Wire Wire Line
	3950 4600 3950 3550
Wire Wire Line
	2800 3550 3950 3550
Connection ~ 4300 4600
Text Label 7400 3050 0    50   ~ 0
MIPI_LANE1_N_HSUL
Wire Wire Line
	4300 1600 4300 1850
Wire Wire Line
	4300 2250 4300 2350
Wire Wire Line
	4300 3450 4300 3700
Wire Wire Line
	4300 4150 4300 4300
Wire Wire Line
	7400 3050 8200 3050
Wire Wire Line
	7400 2850 8200 2850
Wire Wire Line
	7400 2750 8200 2750
Wire Wire Line
	7400 2950 8200 2950
Wire Wire Line
	5850 1600 4950 1600
Wire Wire Line
	5850 2650 4950 2650
Wire Wire Line
	5850 3450 4950 3450
Wire Wire Line
	5850 4600 4950 4600
Text Label 5100 1600 0    50   ~ 0
MIPI_LANE0_N_HSUL
Wire Wire Line
	5850 1850 4300 1850
Connection ~ 4300 1850
Wire Wire Line
	4300 1850 4300 1950
Wire Wire Line
	5850 2350 4300 2350
Connection ~ 4300 2350
Wire Wire Line
	4300 2350 4300 2650
Text Label 5100 1850 0    50   ~ 0
MIPI_LANE0_LVDS_N
Text Label 5100 2350 0    50   ~ 0
MIPI_LANE0_LVDS_P
Text Label 5100 2650 0    50   ~ 0
MIPI_LANE0_P_HSUL
Wire Wire Line
	5850 3700 4300 3700
Connection ~ 4300 3700
Wire Wire Line
	4300 3700 4300 3850
Wire Wire Line
	5850 4300 4300 4300
Connection ~ 4300 4300
Wire Wire Line
	4300 4300 4300 4600
Text Label 5100 3450 0    50   ~ 0
MIPI_LANE1_N_HSUL
Text Label 5100 3700 0    50   ~ 0
MIPI_LANE1_LVDS_N
Text Label 5100 4300 0    50   ~ 0
MIPI_LANE1_LVDS_P
Text Label 5100 4600 0    50   ~ 0
MIPI_LANE1_P_HSUL
Wire Wire Line
	7400 3550 8200 3550
Wire Wire Line
	7400 3650 8200 3650
Wire Wire Line
	7400 3950 8200 3950
Wire Wire Line
	7400 4050 8200 4050
Wire Wire Line
	7400 4150 8200 4150
Wire Wire Line
	7400 4250 8200 4250
Wire Wire Line
	7400 4550 8200 4550
Wire Wire Line
	9550 4550 8700 4550
Wire Wire Line
	9550 4250 8700 4250
Wire Wire Line
	9550 4150 8700 4150
Wire Wire Line
	9550 4050 8700 4050
Wire Wire Line
	9550 3950 8700 3950
Wire Wire Line
	9550 3650 8700 3650
Wire Wire Line
	8700 3550 9550 3550
Wire Wire Line
	9550 3450 8700 3450
Wire Wire Line
	9550 3050 8700 3050
Wire Wire Line
	9550 2950 8700 2950
Wire Wire Line
	9550 2750 8700 2750
NoConn ~ 9550 2750
NoConn ~ 9550 2950
NoConn ~ 9550 3050
NoConn ~ 9550 3450
Text Label 7400 3550 0    50   ~ 0
MIPI_CLK_N_HSUL
Text Label 7400 3650 0    50   ~ 0
MIPI_CLK_LVDS_N
Text Label 8800 3650 0    50   ~ 0
MIPI_CLK_LVDS_P
Text Label 7400 3950 0    50   ~ 0
MIPI_CLK_P_HSUL
NoConn ~ 9550 3550
NoConn ~ 9550 3950
Text Label 7400 4050 0    50   ~ 0
CAM_PWUP
Text Label 7400 4150 0    50   ~ 0
CLK_12MHz
Wire Wire Line
	7350 5850 6750 5850
Wire Wire Line
	6750 5850 6750 5750
Wire Wire Line
	7350 6000 6400 6000
Wire Wire Line
	6400 6000 6400 5750
Text Label 7400 4250 0    50   ~ 0
CAM_SCL
Text Label 7400 4550 0    50   ~ 0
CAM_SDA
Text Label 7000 6000 0    50   ~ 0
CAM_SDA
Text Label 7000 5850 0    50   ~ 0
CAM_SCL
$Comp
L power:+3V3 #PWR0104
U 1 1 6100AD9E
P 10250 2900
F 0 "#PWR0104" H 10250 2750 50  0001 C CNN
F 1 "+3V3" H 10265 3073 50  0000 C CNN
F 2 "" H 10250 2900 50  0001 C CNN
F 3 "" H 10250 2900 50  0001 C CNN
	1    10250 2900
	1    0    0    -1  
$EndComp
Wire Wire Line
	7850 3250 8200 3250
$Comp
L power:GND #PWR0105
U 1 1 61011232
P 10000 4800
F 0 "#PWR0105" H 10000 4550 50  0001 C CNN
F 1 "GND" H 10005 4627 50  0000 C CNN
F 2 "" H 10000 4800 50  0001 C CNN
F 3 "" H 10000 4800 50  0001 C CNN
	1    10000 4800
	1    0    0    -1  
$EndComp
Wire Wire Line
	7850 4450 8200 4450
Wire Wire Line
	7850 3150 8200 3150
Wire Wire Line
	7850 4350 8200 4350
Text Notes 6350 6200 0    50   ~ 0
Connexion I2C <=> SCCB
Wire Wire Line
	2800 4150 3450 4150
Wire Wire Line
	2800 4450 3300 4450
Wire Wire Line
	2800 4350 3450 4350
Wire Wire Line
	2800 4250 3450 4250
Wire Wire Line
	2800 4050 3450 4050
Wire Wire Line
	2800 3950 3300 3950
Wire Wire Line
	2800 3650 3300 3650
Wire Wire Line
	2800 3350 3300 3350
Wire Wire Line
	3850 3750 3850 5400
Wire Wire Line
	3850 5400 4300 5400
Wire Wire Line
	2800 3750 3850 3750
Wire Wire Line
	4300 5700 4300 5600
Connection ~ 4300 5400
Wire Wire Line
	4300 5400 4650 5400
Wire Wire Line
	4650 6450 4300 6450
Wire Wire Line
	4300 6450 4300 6150
Wire Wire Line
	4300 6450 3750 6450
Wire Wire Line
	3750 6450 3750 3850
Wire Wire Line
	2800 3850 3750 3850
Connection ~ 4300 6450
Connection ~ 4300 5600
Wire Wire Line
	4300 5600 4300 5400
Connection ~ 4300 6150
Wire Wire Line
	4300 6150 4300 6000
Wire Wire Line
	5850 5400 4950 5400
Wire Wire Line
	4300 5600 5850 5600
Wire Wire Line
	4300 6150 5850 6150
Wire Wire Line
	5850 6450 4950 6450
Text Label 5100 5400 0    50   ~ 0
MIPI_CLK_N_HSUL
Text Label 5100 5600 0    50   ~ 0
MIPI_CLK_LVDS_N
Text Label 5100 6150 0    50   ~ 0
MIPI_CLK_LVDS_P
Text Label 5100 6450 0    50   ~ 0
MIPI_CLK_P_HSUL
Wire Wire Line
	7850 3850 8200 3850
Wire Wire Line
	7850 3750 8200 3750
Wire Wire Line
	10000 3150 10000 3750
Wire Wire Line
	8700 3150 10000 3150
Wire Wire Line
	10250 3250 10250 2900
Wire Wire Line
	8700 3250 10250 3250
Wire Wire Line
	10250 4450 10250 3850
Wire Wire Line
	8700 4450 10250 4450
Connection ~ 10250 3250
Wire Wire Line
	8700 3850 10250 3850
Connection ~ 10250 3850
Wire Wire Line
	10250 3850 10250 3250
Wire Wire Line
	8700 3750 10000 3750
Connection ~ 10000 3750
Wire Wire Line
	10000 3750 10000 4350
Wire Wire Line
	8700 4350 10000 4350
Connection ~ 10000 4350
Wire Wire Line
	10000 4350 10000 4800
NoConn ~ 9550 4050
NoConn ~ 9550 4150
NoConn ~ 9550 4250
NoConn ~ 9550 4550
Wire Wire Line
	7550 1400 7550 1450
Wire Wire Line
	7550 1700 7550 1750
$Comp
L power:PWR_FLAG #FLG0101
U 1 1 60DB2958
P 7950 1450
F 0 "#FLG0101" H 7950 1525 50  0001 C CNN
F 1 "PWR_FLAG" V 7950 1578 50  0000 L CNN
F 2 "" H 7950 1450 50  0001 C CNN
F 3 "~" H 7950 1450 50  0001 C CNN
	1    7950 1450
	0    1    1    0   
$EndComp
Wire Wire Line
	7950 1450 7550 1450
Connection ~ 7550 1450
Wire Wire Line
	7550 1450 7550 1500
$Comp
L power:PWR_FLAG #FLG0102
U 1 1 60DB7D49
P 7950 1750
F 0 "#FLG0102" H 7950 1825 50  0001 C CNN
F 1 "PWR_FLAG" V 7950 1878 50  0000 L CNN
F 2 "" H 7950 1750 50  0001 C CNN
F 3 "~" H 7950 1750 50  0001 C CNN
	1    7950 1750
	0    1    1    0   
$EndComp
Wire Wire Line
	7950 1750 7550 1750
Connection ~ 7550 1750
Wire Wire Line
	7550 1750 7550 1800
Wire Wire Line
	1750 5800 2200 5800
Wire Wire Line
	1750 5900 2200 5900
Wire Wire Line
	1750 6000 2200 6000
Wire Wire Line
	1750 6100 2200 6100
Text Label 1750 5800 0    50   ~ 0
CAM_PWUP
Text Label 1750 5900 0    50   ~ 0
CLK_12MHz
Text Label 1750 6000 0    50   ~ 0
CAM_SCL
Text Label 1750 6200 0    50   ~ 0
VCC3V3
$Comp
L Connector_Generic:Conn_01x06 J3
U 1 1 60E1C495
P 2400 6000
F 0 "J3" H 2480 5992 50  0000 L CNN
F 1 "Conn_01x06" H 2480 5901 50  0000 L CNN
F 2 "Connector_PinHeader_2.54mm:PinHeader_1x06_P2.54mm_Vertical" H 2400 6000 50  0001 C CNN
F 3 "~" H 2400 6000 50  0001 C CNN
	1    2400 6000
	1    0    0    -1  
$EndComp
Wire Wire Line
	1750 6200 2200 6200
Wire Wire Line
	1750 6300 2200 6300
Text Label 1750 6100 0    50   ~ 0
CAM_SDA
Text Label 1750 6300 0    50   ~ 0
GND
Text Notes 2000 6500 0    50   ~ 0
Connecteur débug
$Comp
L power:GND #PWR0106
U 1 1 60DC81FC
P 3250 4750
F 0 "#PWR0106" H 3250 4500 50  0001 C CNN
F 1 "GND" H 3255 4577 50  0000 C CNN
F 2 "" H 3250 4750 50  0001 C CNN
F 3 "" H 3250 4750 50  0001 C CNN
	1    3250 4750
	1    0    0    -1  
$EndComp
Wire Wire Line
	2800 4550 3250 4550
Wire Wire Line
	3250 4550 3250 4650
Wire Wire Line
	2800 4650 3250 4650
Connection ~ 3250 4650
Wire Wire Line
	3250 4650 3250 4750
Text Notes 3300 4650 0    50   ~ 0
Caisson
$EndSCHEMATC
