(module LOGO (layer F.Cu)
  (at 0 0)
 (fp_text reference "G***" (at 0 0) (layer F.SilkS) hide
  (effects (font (thickness 0.3)))
  )
  (fp_text value "LOGO" (at 0.75 0) (layer F.SilkS) hide
  (effects (font (thickness 0.3)))
  )
  (fp_poly (pts (xy 0.023195 -1.128870) (xy 0.041682 -1.128743) (xy 0.059473 -1.128507) (xy 0.076152 -1.128162) (xy 0.091301 -1.127709) (xy 0.104501 -1.127146) (xy 0.115336 -1.126475) (xy 0.121069 -1.125964)
     (xy 0.182731 -1.117973) (xy 0.243173 -1.107171) (xy 0.302402 -1.093557) (xy 0.360424 -1.077130) (xy 0.417248 -1.057886) (xy 0.472879 -1.035824) (xy 0.494640 -1.026281) (xy 0.526441 -1.011188)
     (xy 0.559409 -0.994113) (xy 0.592817 -0.975485) (xy 0.625938 -0.955732) (xy 0.658046 -0.935283) (xy 0.688415 -0.914567) (xy 0.707365 -0.900798) (xy 0.727752 -0.885328) (xy 0.746365 -0.870654)
     (xy 0.763851 -0.856217) (xy 0.780858 -0.841461) (xy 0.798032 -0.825827) (xy 0.816021 -0.808759) (xy 0.829642 -0.795464) (xy 0.862074 -0.762451) (xy 0.892055 -0.729664) (xy 0.920041 -0.696525)
     (xy 0.946487 -0.662454) (xy 0.971850 -0.626872) (xy 0.996584 -0.589201) (xy 1.013277 -0.562096) (xy 1.042145 -0.511102) (xy 1.068331 -0.458641) (xy 1.091822 -0.404753) (xy 1.112604 -0.349480)
     (xy 1.130664 -0.292863) (xy 1.145989 -0.234941) (xy 1.158565 -0.175758) (xy 1.168379 -0.115352) (xy 1.173472 -0.073561) (xy 1.174216 -0.064546) (xy 1.174852 -0.052885) (xy 1.175378 -0.038997)
     (xy 1.175796 -0.023298) (xy 1.176105 -0.006207) (xy 1.176305 0.011860) (xy 1.176395 0.030484) (xy 1.176378 0.049249) (xy 1.176251 0.067735) (xy 1.176015 0.085527) (xy 1.175670 0.102206)
     (xy 1.175217 0.117354) (xy 1.174654 0.130555) (xy 1.173983 0.141390) (xy 1.173472 0.147122) (xy 1.165481 0.208785) (xy 1.154679 0.269227) (xy 1.141065 0.328456) (xy 1.124638 0.386478)
     (xy 1.105394 0.443301) (xy 1.083332 0.498933) (xy 1.073789 0.520694) (xy 1.054132 0.561732) (xy 1.031980 0.603291) (xy 1.007697 0.644780) (xy 0.981645 0.685613) (xy 0.954190 0.725201)
     (xy 0.925693 0.762956) (xy 0.918697 0.771731) (xy 0.897865 0.796620) (xy 0.874909 0.822323) (xy 0.850424 0.848237) (xy 0.825007 0.873762) (xy 0.799253 0.898297) (xy 0.773757 0.921241)
     (xy 0.753626 0.938310) (xy 0.717851 0.966442) (xy 0.679926 0.993838) (xy 0.640447 1.020125) (xy 0.600012 1.044931) (xy 0.559218 1.067883) (xy 0.518662 1.088608) (xy 0.494640 1.099843)
     (xy 0.443509 1.121386) (xy 0.390760 1.140712) (xy 0.336895 1.157674) (xy 0.282419 1.172126) (xy 0.227837 1.183920) (xy 0.177772 1.192324) (xy 0.163466 1.194359) (xy 0.150784 1.196084)
     (xy 0.139298 1.197528) (xy 0.128581 1.198716) (xy 0.118204 1.199675) (xy 0.107741 1.200433) (xy 0.096764 1.201016) (xy 0.084846 1.201451) (xy 0.071558 1.201765) (xy 0.056474 1.201985)
     (xy 0.039165 1.202138) (xy 0.019922 1.202247) (xy 0.004383 1.202309) (xy -0.010440 1.202346) (xy -0.024223 1.202358) (xy -0.036641 1.202345) (xy -0.047372 1.202310) (xy -0.056090 1.202252)
     (xy -0.062471 1.202172) (xy -0.066192 1.202071) (xy -0.066665 1.202043) (xy -0.127046 1.196097) (xy -0.185960 1.187507) (xy -0.243537 1.176242) (xy -0.299909 1.162273) (xy -0.355208 1.145570)
     (xy -0.409565 1.126103) (xy -0.420255 1.121907) (xy -0.460514 1.105137) (xy -0.498484 1.087757) (xy -0.534935 1.069388) (xy -0.570633 1.049654) (xy -0.588149 1.039331) (xy -0.627572 1.014763)
     (xy -0.664511 0.989877) (xy -0.699546 0.964218) (xy -0.733256 0.937328) (xy -0.766220 0.908753) (xy -0.799017 0.878038) (xy -0.821518 0.855696) (xy -0.851519 0.824307) (xy -0.879144 0.793364)
     (xy -0.904896 0.762256) (xy -0.929277 0.730371) (xy -0.952786 0.697099) (xy -0.958050 0.689296) (xy -0.990289 0.638422) (xy -1.019696 0.586417) (xy -1.046280 0.533257) (xy -1.070048 0.478919)
     (xy -1.091009 0.423379) (xy -1.109173 0.366614) (xy -1.124546 0.308601) (xy -1.137137 0.249316) (xy -1.146956 0.188735) (xy -1.152017 0.147122) (xy -1.152762 0.138107) (xy -1.153397 0.126447)
     (xy -1.153924 0.112558) (xy -1.154342 0.096860) (xy -1.154650 0.079768) (xy -1.154850 0.061702) (xy -1.154941 0.043077) (xy -1.154935 0.036461) (xy -1.002210 0.036461) (xy -1.002119 0.054225)
     (xy -1.001838 0.071242) (xy -1.001369 0.086749) (xy -1.000710 0.099985) (xy -1.000683 0.100407) (xy -0.995587 0.155800) (xy -0.987547 0.210517) (xy -0.976620 0.264454) (xy -0.962862 0.317507)
     (xy -0.946328 0.369573) (xy -0.927075 0.420549) (xy -0.905158 0.470331) (xy -0.880633 0.518817) (xy -0.853556 0.565902) (xy -0.823983 0.611484) (xy -0.791969 0.655459) (xy -0.757571 0.697725)
     (xy -0.720845 0.738177) (xy -0.681846 0.776712) (xy -0.640630 0.813228) (xy -0.597254 0.847620) (xy -0.596151 0.848445) (xy -0.551159 0.880163) (xy -0.504521 0.909355) (xy -0.456387 0.935964)
     (xy -0.406907 0.959935) (xy -0.356228 0.981214) (xy -0.304501 0.999745) (xy -0.251874 1.015473) (xy -0.198498 1.028342) (xy -0.144520 1.038298) (xy -0.090091 1.045285) (xy -0.056704 1.048068)
     (xy -0.046407 1.048597) (xy -0.033699 1.049006) (xy -0.019220 1.049296) (xy -0.003608 1.049466) (xy 0.012494 1.049514) (xy 0.028449 1.049442) (xy 0.043614 1.049247) (xy 0.057352 1.048929)
     (xy 0.069021 1.048488) (xy 0.074353 1.048191) (xy 0.129784 1.043092) (xy 0.184551 1.035045) (xy 0.238552 1.024104) (xy 0.291679 1.010322) (xy 0.343830 0.993753) (xy 0.394899 0.974449)
     (xy 0.444780 0.952463) (xy 0.493370 0.927848) (xy 0.540564 0.900658) (xy 0.586256 0.870946) (xy 0.630342 0.838764) (xy 0.672717 0.804166) (xy 0.713276 0.767205) (xy 0.751914 0.727933)
     (xy 0.788390 0.686570) (xy 0.822909 0.642833) (xy 0.854847 0.597482) (xy 0.884163 0.550620) (xy 0.910817 0.502348) (xy 0.934769 0.452767) (xy 0.955978 0.401979) (xy 0.974403 0.350086)
     (xy 0.990005 0.297188) (xy 1.002742 0.243388) (xy 1.012574 0.188788) (xy 1.019461 0.133488) (xy 1.022137 0.100407) (xy 1.022803 0.087265) (xy 1.023279 0.071826) (xy 1.023566 0.054851)
     (xy 1.023664 0.037100) (xy 1.023573 0.019336) (xy 1.023293 0.002320) (xy 1.022823 -0.013187) (xy 1.022164 -0.026424) (xy 1.022137 -0.026845) (xy 1.017038 -0.082276) (xy 1.008991 -0.137043)
     (xy 0.998050 -0.191044) (xy 0.984269 -0.244171) (xy 0.967699 -0.296322) (xy 0.948395 -0.347391) (xy 0.926409 -0.397272) (xy 0.901794 -0.445862) (xy 0.874604 -0.493056) (xy 0.844892 -0.538748)
     (xy 0.812710 -0.582834) (xy 0.778112 -0.625209) (xy 0.741151 -0.665768) (xy 0.701880 -0.704407) (xy 0.660516 -0.740882) (xy 0.616779 -0.775401) (xy 0.571428 -0.807339) (xy 0.524566 -0.836655)
     (xy 0.476294 -0.863309) (xy 0.426713 -0.887261) (xy 0.375925 -0.908470) (xy 0.324032 -0.926895) (xy 0.271135 -0.942497) (xy 0.217335 -0.955234) (xy 0.162734 -0.965066) (xy 0.107434 -0.971953)
     (xy 0.074353 -0.974629) (xy 0.061212 -0.975295) (xy 0.045773 -0.975771) (xy 0.028797 -0.976058) (xy 0.011047 -0.976156) (xy -0.006717 -0.976065) (xy -0.023734 -0.975785) (xy -0.039241 -0.975315)
     (xy -0.052477 -0.974656) (xy -0.052899 -0.974629) (xy -0.108329 -0.969530) (xy -0.163097 -0.961483) (xy -0.217097 -0.950542) (xy -0.270225 -0.936761) (xy -0.322376 -0.920191) (xy -0.373444 -0.900887)
     (xy -0.423326 -0.878901) (xy -0.471916 -0.854287) (xy -0.519110 -0.827096) (xy -0.564802 -0.797384) (xy -0.608888 -0.765202) (xy -0.651263 -0.730604) (xy -0.691822 -0.693643) (xy -0.730460 -0.654372)
     (xy -0.766936 -0.613008) (xy -0.801455 -0.569271) (xy -0.833392 -0.523920) (xy -0.862709 -0.477058) (xy -0.889363 -0.428786) (xy -0.913315 -0.379205) (xy -0.934524 -0.328417) (xy -0.952949 -0.276524)
     (xy -0.968551 -0.223627) (xy -0.981288 -0.169827) (xy -0.991120 -0.115226) (xy -0.998007 -0.059926) (xy -1.000683 -0.026845) (xy -1.001349 -0.013704) (xy -1.001825 0.001735) (xy -1.002112 0.018711)
     (xy -1.002210 0.036461) (xy -1.154935 0.036461) (xy -1.154923 0.024313) (xy -1.154796 0.005826) (xy -1.154561 -0.011965) (xy -1.154216 -0.028644) (xy -1.153762 -0.043793) (xy -1.153200 -0.056993)
     (xy -1.152529 -0.067828) (xy -1.152017 -0.073561) (xy -1.144226 -0.134140) (xy -1.133821 -0.193171) (xy -1.120783 -0.250738) (xy -1.105089 -0.306928) (xy -1.086721 -0.361827) (xy -1.074399 -0.394201)
     (xy -1.057629 -0.434460) (xy -1.040249 -0.472431) (xy -1.021880 -0.508881) (xy -1.002146 -0.544579) (xy -0.991823 -0.562096) (xy -0.967255 -0.601518) (xy -0.942370 -0.638458) (xy -0.916710 -0.673493)
     (xy -0.889820 -0.707203) (xy -0.861245 -0.740167) (xy -0.830530 -0.772963) (xy -0.808188 -0.795464) (xy -0.776799 -0.825465) (xy -0.745856 -0.853091) (xy -0.714748 -0.878843) (xy -0.682863 -0.903223)
     (xy -0.649591 -0.926733) (xy -0.641788 -0.931996) (xy -0.590914 -0.964235) (xy -0.538909 -0.993642) (xy -0.485749 -1.020226) (xy -0.431411 -1.043994) (xy -0.375871 -1.064956) (xy -0.319106 -1.083119)
     (xy -0.261093 -1.098492) (xy -0.201808 -1.111084) (xy -0.141227 -1.120902) (xy -0.099614 -1.125964) (xy -0.090599 -1.126708) (xy -0.078939 -1.127344) (xy -0.065051 -1.127870) (xy -0.049352 -1.128288)
     (xy -0.032260 -1.128597) (xy -0.014194 -1.128797) (xy 0.004431 -1.128887) (xy 0.023195 -1.128870) )(layer Eco2.User) (width  0.010000)
  )
  (fp_poly (pts (xy 0.378209 -0.292710) (xy 0.421020 -0.292707) (xy 0.461045 -0.292703) (xy 0.498377 -0.292696) (xy 0.533109 -0.292687) (xy 0.565334 -0.292674) (xy 0.595146 -0.292657) (xy 0.622636 -0.292636)
     (xy 0.647899 -0.292610) (xy 0.671026 -0.292579) (xy 0.692112 -0.292543) (xy 0.711249 -0.292500) (xy 0.728530 -0.292450) (xy 0.744048 -0.292393) (xy 0.757897 -0.292328) (xy 0.770169 -0.292255)
     (xy 0.780957 -0.292173) (xy 0.790354 -0.292082) (xy 0.798453 -0.291982) (xy 0.805348 -0.291871) (xy 0.811131 -0.291749) (xy 0.815896 -0.291616) (xy 0.819734 -0.291472) (xy 0.822740 -0.291316)
     (xy 0.825007 -0.291147) (xy 0.826627 -0.290964) (xy 0.827693 -0.290768) (xy 0.828299 -0.290558) (xy 0.828537 -0.290334) (xy 0.828500 -0.290094) (xy 0.828284 -0.289841) (xy 0.826698 -0.288398)
     (xy 0.823000 -0.285070) (xy 0.817365 -0.280015) (xy 0.809969 -0.273389) (xy 0.800987 -0.265348) (xy 0.790594 -0.256050) (xy 0.778964 -0.245650) (xy 0.766274 -0.234306) (xy 0.752697 -0.222174)
     (xy 0.738410 -0.209411) (xy 0.730228 -0.202104) (xy 0.715933 -0.189339) (xy 0.699648 -0.174796) (xy 0.681666 -0.158738) (xy 0.662284 -0.141430) (xy 0.641797 -0.123135) (xy 0.620500 -0.104116)
     (xy 0.598688 -0.084638) (xy 0.576657 -0.064963) (xy 0.554701 -0.045357) (xy 0.533116 -0.026081) (xy 0.512197 -0.007400) (xy 0.494603 0.008312) (xy 0.354012 0.133861) (xy 0.354012 0.328710)
     (xy 0.406492 0.381207) (xy 0.458973 0.433704) (xy -0.391490 0.433704) (xy -0.387349 0.429563) (xy -0.385393 0.427722) (xy -0.381396 0.424056) (xy -0.375602 0.418786) (xy -0.368255 0.412131)
     (xy -0.359598 0.404312) (xy -0.349874 0.395548) (xy -0.339326 0.386060) (xy -0.328382 0.376233) (xy -0.273555 0.327044) (xy -0.273555 0.138821) (xy -0.445964 0.038831) (xy -0.467166 0.026529)
     (xy -0.487653 0.014630) (xy -0.507268 0.003227) (xy -0.525851 -0.007588) (xy -0.543244 -0.017722) (xy -0.559290 -0.027082) (xy -0.573828 -0.035576) (xy -0.586701 -0.043111) (xy -0.597750 -0.049595)
     (xy -0.606817 -0.054934) (xy -0.613743 -0.059037) (xy -0.618369 -0.061811) (xy -0.620538 -0.063162) (xy -0.620671 -0.063261) (xy -0.622313 -0.064331) (xy -0.626410 -0.066826) (xy -0.632769 -0.070633)
     (xy -0.641197 -0.075638) (xy -0.651500 -0.081726) (xy -0.663483 -0.088782) (xy -0.676953 -0.096694) (xy -0.691716 -0.105346) (xy -0.707578 -0.114625) (xy -0.724345 -0.124416) (xy -0.739832 -0.133445)
     (xy -0.856693 -0.201526) (xy -0.560144 -0.201913) (xy -0.263594 -0.202300) (xy -0.263594 -0.292711) (xy 0.332519 -0.292711) (xy 0.378209 -0.292710) )(layer Eco2.User) (width  0.010000)
  )
)
